{
   "_id": "_design/Sentiment",
   "_rev": "6-25a31edbd27a435912576a91f5666691",
   "language": "javascript",
   "views": {
       "happy": {
           "map": "var dict = {  \"m\" : 0, \"a\": 0, \"e\": 0, \"n\": 0 };\nfunction(doc) {\n        var happy = /happy||cheerful|contented|contented|delighted|ecstatic|elated|glad|joyful|joyous|jubilant|lively|merry|overjoyed|peaceful|pleasant|pleased|thrilled|upbeat|blessed|blest|blissful|:D|:\\)|:-\\)|=\\)|=D|;\\)|:p|:-p|\\(:|:-\\)| :\\)| :o\\)| :]| :3 |:c\\) |:> | =]| 8\\)| =\\)| :}| :^\\) |:?\\)|:-D |:D |8-D |8D |x-D |xD| X-D |XD| =-D| =D| =-3| =3| B^D|:-\\)\\)|:'-\\)| :'\\)| :'-\\)| :'\\)/;\n\tvar sad =/ sad|annoyed|unhappy|depressed|bitter|dismal|heartbroken|melancholy|mournful|pessimistic|somber|sorrowful|wistful|bereaved|cheerless| dejected|despairing|espondent|disconsolate|distressed|doleful| grief-stricken|grieved|heavyhearted|hurting|:\\(|:-\\(|;\\(|=\\(|:\\s\\(|:\\/\\s|:-\\/|\\):|   >:\\[ |:-\\( |:\\(  |:-c |:c| :-< | :?C |:< |:-\\[ |:\\[| :\\{| :$ /;\n\nvar s = doc.text;\nvar createdAt = doc.created_at.split(' ')\nvar day = createdAt[0]\nvar time = createdAt[3].split(':')\nvar s = doc.text;\nif (s.match(happy)) {\nif (time[0] >= 12 && time[0] < 17) {\ndict[\"a\"] +=1;\nemit([day,\"Afternoon\"],dict[\"a\"],1);\n}\nelse\nif (time[0] >=17 && time[0] < 21) {\ndict[\"e\"] +=1;\nemit([day,\"Evening\"],dict[\"e\"],1);\n}\nelse\nif (time[0] >=6 && time[0] < 12) {\ndict[\"e\"] +=1;\nemit([day,\"Morning\"],dict[\"m\"],1);\n}\nelse\nif (time[0] >=21 && time[0] <= 23 || time[0]>=00 && time[0] < 6) {\ndict[\"e\"] +=1;\nemit([day,\"Night\"],dict[\"n\"],1);\n}\n}\n}\n\n"
       },
       "sad": {
           "map": "var dict = {  \"m\" : 0, \"a\": 0, \"e\": 0, \"n\": 0 };\nfunction(doc) {\n        var happy = /happy||cheerful|contented|contented|delighted|ecstatic|elated|glad|joyful|joyous|jubilant|lively|merry|overjoyed|peaceful|pleasant|pleased|thrilled|upbeat|blessed|blest|blissful|:D|:\\)|:-\\)|=\\)|=D|;\\)|:p|:-p|\\(:|:-\\)| :\\)| :o\\)| :]| :3 |:c\\) |:> | =]| 8\\)| =\\)| :}| :^\\) |:?\\)|:-D |:D |8-D |8D |x-D |xD| X-D |XD| =-D| =D| =-3| =3| B^D|:-\\)\\)|:'-\\)| :'\\)| :'-\\)| :'\\)/;\n\tvar sad =/ sad|annoyed|unhappy|depressed|bitter|dismal|heartbroken|melancholy|mournful|pessimistic|somber|sorrowful|wistful|bereaved|cheerless| dejected|despairing|espondent|disconsolate|distressed|doleful| grief-stricken|grieved|heavyhearted|hurting|:\\(|:-\\(|;\\(|=\\(|:\\s\\(|:\\/\\s|:-\\/|\\):|   >:\\[ |:-\\( |:\\(  |:-c |:c| :-< | :?C |:< |:-\\[ |:\\[| :\\{| :$ /;\n\nvar s = doc.text;\nvar createdAt = doc.created_at.split(' ')\nvar day = createdAt[0]\nvar time = createdAt[3].split(':')\nvar s = doc.text;\nif (s.match(sad)) {\nif (time[0] >= 12 && time[0] < 17) {\ndict[\"a\"] +=1;\nemit([day,\"Afternoon\"],dict[\"a\"],1);\n}\nelse\nif (time[0] >=17 && time[0] < 21) {\ndict[\"e\"] +=1;\nemit([day,\"Evening\"],dict[\"e\"],1);\n}\nelse\nif (time[0] >=6 && time[0] < 12) {\ndict[\"e\"] +=1;\nemit([day,\"Morning\"],dict[\"m\"],1);\n}\nelse\nif (time[0] >=21 && time[0] <= 23 || time[0]>=00 && time[0] < 6) {\ndict[\"e\"] +=1;\nemit([day,\"Night\"],dict[\"n\"],1);\n}\n}\n}\n\n"
       }
   }
}